…
    ## Warning: One or more parsing issues, call `problems()` on your data frame for details,
    ## e.g.:
    ##   dat <- vroom(...)
    ##   problems(dat)

    ## Rows: 1444 Columns: 3
    ## ── Column specification ────────────────────────────────────────────────────────
    ## Delimiter: ","
    ## chr (3): Data Source, World Development Indicators, ...3
    ## 
    ## ℹ Use `spec()` to retrieve the full column specification for this data.
    ## ℹ Specify the column types or set `show_col_types = FALSE` to quiet this message.

    ## # A tibble: 1,444 × 3
    ##    `Data Source`     `World Development Indicators` ...3                        
    ##    <chr>             <chr>                          <chr>                       
    ##  1 Last Updated Date 2022-07-20                      <NA>                       
    ##  2 Country Name      Country Code                   "Indicator Name,Indicator C…
    ##  3 Aruba             ABW                            "Internally displaced perso…
    ##  4 Aruba             ABW                            "Merchandise exports to low…
    ##  5 Aruba             ABW                            "Net barter terms of trade …
    ##  6 Aruba             ABW                            "Merchandise imports from h…
    ##  7 Aruba             ABW                            "Share of tariff lines with…
    ##  8 Aruba             ABW                            "Share of tariff lines with…
    ##  9 Aruba             ABW                            "Urban population (% of tot…
    ## 10 Aruba             ABW                            "Population, total,SP.POP.T…
    ## # ℹ 1,434 more rows
…
    ## Warning: One or more parsing issues, call `problems()` on your data frame for details,
    ## e.g.:
    ##   dat <- vroom(...)
    ##   problems(dat)

    ## Rows: 1444 Columns: 3
    ## ── Column specification ────────────────────────────────────────────────────────
    ## Delimiter: ","
    ## chr (3): Data Source, World Development Indicators, ...3
    ## 
    ## ℹ Use `spec()` to retrieve the full column specification for this data.
    ## ℹ Specify the column types or set `show_col_types = FALSE` to quiet this message.

    ## # A tibble: 1,444 × 3
    ##    `Data Source`     `World Development Indicators` ...3                        
    ##    <chr>             <chr>                          <chr>                       
    ##  1 Last Updated Date 2022-07-20                      <NA>                       
    ##  2 Country Name      Country Code                   "Indicator Name,Indicator C…
    ##  3 Afghanistan       AFG                            "Internally displaced perso…
    ##  4 Afghanistan       AFG                            "Merchandise exports to low…
    ##  5 Afghanistan       AFG                            "Net barter terms of trade …
    ##  6 Afghanistan       AFG                            "Merchandise imports from h…
    ##  7 Afghanistan       AFG                            "Share of tariff lines with…
    ##  8 Afghanistan       AFG                            "Share of tariff lines with…
    ##  9 Afghanistan       AFG                            "Urban population (% of tot…
    ## 10 Afghanistan       AFG                            "Population, total,SP.POP.T…
    ## # ℹ 1,434 more rows
…
    ## New names:
    ## Rows: 1442 Columns: 67
    ## ── Column specification
    ## ──────────────────────────────────────────────────────── Delimiter: "," chr
    ## (4): Country Name, Country Code, Indicator Name, Indicator Code dbl (62): 1960,
    ## 1961, 1962, 1963, 1964, 1965, 1966, 1967, 1968, 1969, 1970, ... lgl (1): ...67
    ## ℹ Use `spec()` to retrieve the full column specification for this data. ℹ
    ## Specify the column types or set `show_col_types = FALSE` to quiet this message.
    ## • `` -> `...67`

    ## # A tibble: 1,442 × 66
    ##    country country_code indicator indicator_code  `1960`  `1961`  `1962`  `1963`
    ##    <chr>   <chr>        <chr>     <chr>            <dbl>   <dbl>   <dbl>   <dbl>
    ##  1 Aruba   ABW          Internal… VC.IDP.NWCV    NA      NA      NA      NA     
    ##  2 Aruba   ABW          Merchand… TX.VAL.MRCH.R… NA      NA      NA      NA     
    ##  3 Aruba   ABW          Net bart… TT.PRI.MRCH.X… NA      NA      NA      NA     
    ##  4 Aruba   ABW          Merchand… TM.VAL.MRCH.H… NA      NA      NA      NA     
    ##  5 Aruba   ABW          Share of… TM.TAX.TCOM.I… NA      NA      NA      NA     
    ##  6 Aruba   ABW          Share of… TM.TAX.MANF.I… NA      NA      NA      NA     
    ##  7 Aruba   ABW          Urban po… SP.URB.TOTL.I…  5.08e1  5.08e1  5.07e1  5.07e1
    ##  8 Aruba   ABW          Populati… SP.POP.TOTL     5.42e4  5.54e4  5.62e4  5.67e4
    ##  9 Aruba   ABW          Populati… SP.POP.65UP.M…  2.03e0  2.13e0  2.26e0  2.36e0
    ## 10 Aruba   ABW          Populati… SP.POP.3539.M…  5.20e0  5.11e0  5.02e0  4.94e0
    ## # ℹ 1,432 more rows
    ## # ℹ 58 more variables: `1964` <dbl>, `1965` <dbl>, `1966` <dbl>, `1967` <dbl>,
    ## #   `1968` <dbl>, `1969` <dbl>, `1970` <dbl>, `1971` <dbl>, `1972` <dbl>,
    ## #   `1973` <dbl>, `1974` <dbl>, `1975` <dbl>, `1976` <dbl>, `1977` <dbl>,
    ## #   `1978` <dbl>, `1979` <dbl>, `1980` <dbl>, `1981` <dbl>, `1982` <dbl>,
    ## #   `1983` <dbl>, `1984` <dbl>, `1985` <dbl>, `1986` <dbl>, `1987` <dbl>,
    ## #   `1988` <dbl>, `1989` <dbl>, `1990` <dbl>, `1991` <dbl>, `1992` <dbl>, …
…
    ## 
    ## ℹ Use `spec()` to retrieve the full column specification for this data.
    ## ℹ Specify the column types or set `show_col_types = FALSE` to quiet this message.
    ## New names:
    ## Rows: 1442 Columns: 67
    ## ── Column specification ────────────────────────────────────────────────────────
    ## Delimiter: ","
    ## chr  (4): Country Name, Country Code, Indicator Name, Indicator Code
    ## dbl (62): 1960, 1961, 1962, 1963, 1964, 1965, 1966, 1967, 1968, 1969, 1970, ...
    ## lgl  (1): ...67
    ## 
    ## ℹ Use `spec()` to retrieve the full column specification for this data.
    ## ℹ Specify the column types or set `show_col_types = FALSE` to quiet this message.

    ## # A tibble: 312,914 × 66
    ##    country country_code indicator indicator_code  `1960`  `1961`  `1962`  `1963`
    ##    <chr>   <chr>        <chr>     <chr>            <dbl>   <dbl>   <dbl>   <dbl>
    ##  1 Aruba   ABW          Internal… VC.IDP.NWCV    NA      NA      NA      NA     
    ##  2 Aruba   ABW          Merchand… TX.VAL.MRCH.R… NA      NA      NA      NA     
    ##  3 Aruba   ABW          Net bart… TT.PRI.MRCH.X… NA      NA      NA      NA     
    ##  4 Aruba   ABW          Merchand… TM.VAL.MRCH.H… NA      NA      NA      NA     
    ##  5 Aruba   ABW          Share of… TM.TAX.TCOM.I… NA      NA      NA      NA     
    ##  6 Aruba   ABW          Share of… TM.TAX.MANF.I… NA      NA      NA      NA     
    ##  7 Aruba   ABW          Urban po… SP.URB.TOTL.I…  5.08e1  5.08e1  5.07e1  5.07e1
    ##  8 Aruba   ABW          Populati… SP.POP.TOTL     5.42e4  5.54e4  5.62e4  5.67e4
    ##  9 Aruba   ABW          Populati… SP.POP.65UP.M…  2.03e0  2.13e0  2.26e0  2.36e0
    ## 10 Aruba   ABW          Populati… SP.POP.3539.M…  5.20e0  5.11e0  5.02e0  4.94e0
    ## # ℹ 312,904 more rows
    ## # ℹ 58 more variables: `1964` <dbl>, `1965` <dbl>, `1966` <dbl>, `1967` <dbl>,
    ## #   `1968` <dbl>, `1969` <dbl>, `1970` <dbl>, `1971` <dbl>, `1972` <dbl>,
    ## #   `1973` <dbl>, `1974` <dbl>, `1975` <dbl>, `1976` <dbl>, `1977` <dbl>,
    ## #   `1978` <dbl>, `1979` <dbl>, `1980` <dbl>, `1981` <dbl>, `1982` <dbl>,
    ## #   `1983` <dbl>, `1984` <dbl>, `1985` <dbl>, `1986` <dbl>, `1987` <dbl>,
    ## #   `1988` <dbl>, `1989` <dbl>, `1990` <dbl>, `1991` <dbl>, `1992` <dbl>, …
…
